Explore Data Following The Menzerath-Altmann Law • menzerath
…
BG_word_time
#> # A tibble: 45,034 x 2
#>        x     y
#>    <dbl> <dbl>
#>  1     1 0.405
#>  2     1 0.329
#>  3     1 0.146
#>  4     9 0.318
#>  5    10 0.223
#>  6     1 0.442
#>  7     4 0.323
#>  8    11 0.213
#>  9     1 0.261
#> 10     7 0.309
#> # … with 45,024 more rows
…
